[
  "quickadd",
  "templater-obsidian",
  "obsidian-banners",
  "obsidian-excalidraw-plugin",
  "obsidian-git",
  "cm-editor-syntax-highlight-obsidian",
  "obsidian-minimal-settings",
  "table-editor-obsidian",
  "obsidian-vimrc-support"
]