{
  "theme": "moonstone",
  "accentHue": 201,
  "accentSat": 17,
  "lightStyle": "minimal-light",
  "darkStyle": "minimal-dark",
  "lightScheme": "minimal-default-light",
  "darkScheme": "minimal-default-dark",
  "editorFont": "",
  "lineHeight": 1.5,
  "lineWidth": 40,
  "lineWidthWide": 50,
  "maxWidth": 88,
  "trimCols": true,
  "maxColWidth": "18em",
  "textNormal": 16,
  "textSmall": 13,
  "imgGrid": true,
  "imgWidth": "img-default-width",
  "tableWidth": "table-default-width",
  "iframeWidth": "iframe-default-width",
  "mapWidth": "map-default-width",
  "chartWidth": "chart-default-width",
  "colorfulHeadings": true,
  "minimalIcons": true,
  "colorfulActiveStates": true,
  "fancyCursor": true,
  "frostedSidebar": true,
  "trimNames": true,
  "labeledNav": false,
  "fullWidthMedia": true,
  "bordersToggle": true,
  "bordersTitle": false,
  "minimalStatus": true,
  "focusMode": false,
  "underlineInternal": true,
  "underlineExternal": true,
  "useSystemTheme": false,
  "folding": true,
  "lineNumbers": false,
  "readableLineLength": true,
  "devBlockWidth": false
}